<?xml version="1.0" encoding="UTF-8" standalone="no"?>
<svg
   xmlns:dc="http://purl.org/dc/elements/1.1/"
   xmlns:cc="http://creativecommons.org/ns#"
   xmlns:rdf="http://www.w3.org/1999/02/22-rdf-syntax-ns#"
   xmlns:svg="http://www.w3.org/2000/svg"
   xmlns="http://www.w3.org/2000/svg"
   xmlns:sodipodi="http://sodipodi.sourceforge.net/DTD/sodipodi-0.dtd"
   xmlns:inkscape="http://www.inkscape.org/namespaces/inkscape"
   id="Capa_1"
   enable-background="new 0 0 512 512"
   height="512"
   viewBox="0 0 512 512"
   width="512"
   version="1.1"
   sodipodi:docname="water-tank2.svg"
   inkscape:version="0.92.5 (2060ec1f9f, 2020-04-08)">
  <metadata
     id="metadata35">
    <rdf:RDF>
      <cc:Work
         rdf:about="">
        <dc:format>image/svg+xml</dc:format>
        <dc:type
           rdf:resource="http://purl.org/dc/dcmitype/StillImage" />
        <dc:title></dc:title>
      </cc:Work>
    </rdf:RDF>
  </metadata>
  <defs
     id="defs33" />
  <sodipodi:namedview
     pagecolor="#ffffff"
     bordercolor="#666666"
     borderopacity="1"
     objecttolerance="10"
     gridtolerance="10"
     guidetolerance="10"
     inkscape:pageopacity="0"
     inkscape:pageshadow="2"
     inkscape:window-width="2560"
     inkscape:window-height="1029"
     id="namedview31"
     showgrid="false"
     inkscape:zoom="0.4609375"
     inkscape:cx="-80.641075"
     inkscape:cy="246.07295"
     inkscape:window-x="0"
     inkscape:window-y="0"
     inkscape:window-maximized="1"
     inkscape:current-layer="Capa_1" />
  <path
     style="fill:#fed22b;fill-opacity:1"
     inkscape:connector-curvature="0"
     id="path2"
     d="m 222.11781,2.1507824 h -70.758 c -8.284,0 -15,6.716 -15,14.9999996 v 27.884 h 100.758 v -27.884 c 0,-8.2849996 -6.715,-14.9999996 -15,-14.9999996 z" />
  <path
     style="fill:#fdc202;fill-opacity:1"
     inkscape:connector-curvature="0"
     id="path4"
     d="m 181.47481,2.1517824 c -8.302,0 -15.039,6.728 -15.039,15.0389996 v 27.843 h -30.079 v -27.842 c 0,-8.3119996 6.738,-15.0389996 15.039,-15.0389996 h 30.079 z" />
  <path
     style="fill:#a49ca7;fill-opacity:1"
     inkscape:connector-curvature="0"
     id="path6"
     d="M 421.86981,499.11078 H 80.925813 c -5.523,0 -10,-4.477 -10,-10 v -30.131 c 0,-5.523 4.477,-10 10,-10 H 421.86981 c 5.523,0 10,4.477 10,10 v 30.131 c 0,5.523 -4.477,10 -10,10 z" />
  <path
     style="fill:#544f56;fill-opacity:1"
     inkscape:connector-curvature="0"
     id="path8"
     d="M 131.08381,499.11078 H 80.951813 c -5.534,0 -10.026,-4.492 -10.026,-10.026 v -30.079 c 0,-5.534 4.492,-10.026 10.026,-10.026 h 50.130997 c -5.535,0 -10.026,4.492 -10.026,10.026 v 30.079 c 0,5.535 4.492,10.026 10.027,10.026 z" />
  <path
     style="fill:#a49ca7;fill-opacity:1"
     inkscape:connector-curvature="0"
     id="path10"
     d="M 421.86981,95.165782 H 80.925813 c -5.523,0 -10,-4.477 -10,-10 v -30.131 c 0,-5.523 4.477,-10 10,-10 H 421.86981 c 5.523,0 10,4.477 10,10 v 30.131 c 0,5.523 -4.477,10 -10,10 z" />
  <path
     style="fill:#544f56;fill-opacity:1"
     inkscape:connector-curvature="0"
     id="path12"
     d="M 131.08381,95.164782 H 80.951813 c -5.534,0 -10.026,-4.492 -10.026,-10.026 v -30.078 c 0,-5.534 4.492,-10.026 10.026,-10.026 h 50.130997 c -5.535,0 -10.026,4.492 -10.026,10.026 v 30.079 c 0,5.534 4.492,10.025 10.027,10.025 z" />
  <path
     style="fill:#528fd8;fill-opacity:1"
     inkscape:connector-curvature="0"
     id="path14"
     d="m 101.00481,95.165782 h 300.786 V 448.97978 h -300.786 z" />
  <path
     style="fill:#0573ce;fill-opacity:0.94117647"
     inkscape:connector-curvature="0"
     id="path16"
     d="m 401.79081,95.164782 v 20.051998 h -243.637 c -3.876,0 -7.018,3.142 -7.018,7.018 v 326.744 h -50.131 V 95.164782 Z" />
  <path
     style="fill:#a49ca7;fill-opacity:1"
     inkscape:connector-curvature="0"
     id="path18"
     d="m 421.84381,291.95978 c 5.534,0 10.026,-5.615 10.026,-12.533 v -25.066 c 0,-6.931 -4.492,-12.533 -10.026,-12.533 H 80.951813 c -5.534,0 -10.026,5.602 -10.026,12.533 v 25.066 c 0,6.918 4.492,12.533 10.026,12.533 z" />
  <path
     style="fill:#544f56;fill-opacity:1"
     inkscape:connector-curvature="0"
     id="path20"
     d="M 131.08381,291.95978 H 80.951813 c -5.534,0 -10.026,-5.615 -10.026,-12.533 v -25.066 c 0,-6.928 4.492,-12.533 10.026,-12.533 h 50.130997 c -5.535,0 -10.026,5.605 -10.026,12.533 v 25.066 c 0,6.918 4.492,12.533 10.027,12.533 z" />
  <path
     style="fill:#9ec8ff;fill-opacity:1"
     inkscape:connector-curvature="0"
     id="path22"
     d="m 319.21881,286.13378 c 0,37.457 -30.365,67.821 -67.821,67.821 -37.457,0 -67.821,-30.365 -67.821,-67.821 0,-48.554 67.821,-121.142 67.821,-121.142 0,0 67.821,72.588 67.821,121.142 z" />
  <path
     style="fill:#80b6ff;fill-opacity:0.94117647"
     inkscape:connector-curvature="0"
     id="path24"
     d="m 266.43681,352.27778 c -4.843,1.093 -9.876,1.674 -15.039,1.674 -37.458,0 -67.817,-30.359 -67.817,-67.817 0,-48.557 67.817,-121.147 67.817,-121.147 0,0 6.296,6.738 15.039,17.476 -19.982,24.514 -52.778,69.903 -52.778,103.671 0,32.294 22.559,59.305 52.778,66.143 z" />
  <path
     inkscape:connector-curvature="0"
     id="path26"
     d="m 427.3378,107.81678 c 9.675,0 17.546,-7.870998 17.546,-17.545998 v -30.079 c 0,-9.675 -7.871,-17.546 -17.546,-17.546 h -53.971 c -4.15299,0 -7.51999,3.367 -7.51999,7.52 0,4.153 3.36599,7.52 7.51999,7.52 h 53.971 c 1.383,0 2.507,1.125 2.507,2.507 v 30.079 c 0,1.382 -1.124,2.507 -2.507,2.507 H 86.445813 c -1.383,0 -2.507,-1.125 -2.507,-2.507 v -30.08 c 0,-1.382 1.124,-2.507 2.507,-2.507 H 340.60081 c 4.153,0 7.52,-3.367 7.52,-7.52 0,-4.153 -3.366,-7.52 -7.52,-7.52 h -90.469 v -20.323 c 0,-12.4389996 -10.12,-22.5589996 -22.559,-22.5589996 h -70.68 c -12.439,0 -22.559,10.12 -22.559,22.5589996 v 20.325 H 86.445813 c -9.675,0 -17.546,7.871 -17.546,17.546 v 30.079 c 0,9.675 7.871,17.545998 17.546,17.545998 h 12.533 v 58.243 c 0,4.153 3.365997,7.52 7.519997,7.52 4.153,0 7.52,-3.367 7.52,-7.52 v -58.243 H 399.7658 v 131.624 h -83.46799 c -20.004,-37.882 -51.923,-72.398 -53.91,-74.45 -3.307,-3.416 -7.326,-3.182 -10.99,0 -1.95,2.087 -33.906,36.568 -53.91,74.45 h -83.468 v -40.616 c 0,-4.153 -3.366,-7.52 -7.52,-7.52 -4.153,0 -7.519997,3.367 -7.519997,7.52 v 40.616 h -12.534 c -9.675,0 -17.546,8.996 -17.546,20.052 v 25.066 c 0,11.057 7.871,20.052 17.546,20.052 h 12.533 v 141.981 h -12.533 c -9.675,0 -17.546,7.871 -17.546,17.546 v 30.079 c 0,9.675 7.871,17.546 17.546,17.546 H 427.3368 c 9.675,0 17.546,-7.871 17.546,-17.546 v -30.079 c 0,-9.675 -7.871,-17.546 -17.546,-17.546 h -12.533 v -41.238 c 0,-4.153 -3.366,-7.52 -7.52,-7.52 -4.154,0 -7.52,3.367 -7.52,7.52 v 41.238 H 114.01881 v -141.981 h 68.741 c 6.321,35.196 37.145,61.996 74.133,61.996 36.988,0 67.812,-26.799 74.133,-61.996 h 68.74099 v 67.968 c 0,4.153 3.366,7.52 7.52,7.52 4.154,0 7.52,-3.367 7.52,-7.52 v -67.968 h 12.533 c 9.675,0 17.546,-8.996 17.546,-20.052 v -25.066 c 0,-11.057 -7.871,-20.052 -17.546,-20.052 h -12.533 v -131.625 z M 149.37381,22.321782 c 0,-4.147 3.373,-7.52 7.52,-7.52 h 70.68 c 4.147,0 7.52,3.373 7.52,7.52 v 20.325 h -85.719 v -20.325 z M 427.3378,461.63178 c 1.383,0 2.507,1.125 2.507,2.507 v 30.079 c 0,1.382 -1.124,2.507 -2.507,2.507 H 86.445813 c -1.383,0 -2.507,-1.125 -2.507,-2.507 v -30.079 c 0,-1.382 1.124,-2.507 2.507,-2.507 z M 83.939813,284.55878 v -25.066 c 0,-3.061 1.646,-5.013 2.507,-5.013 H 190.32081 c -5.076,12.039 -8.421,24.035 -8.735,35.092 H 86.445813 c -0.727,0 -2.506,-1.756 -2.506,-5.013 z m 172.951997,67.009 c -33.25,0 -60.301,-27.051 -60.301,-60.302 0,-37.203 44.487,-91.663 60.303,-109.848 15.819,18.177 60.299,72.607 60.299,109.848 0,33.251 -27.051,60.302 -60.301,60.302 z m 172.95199,-92.074 v 25.066 c 0,3.257 -1.779,5.013 -2.507,5.013 h -95.13899 c -0.314,-11.057 -3.659,-23.053 -8.735,-35.092 H 427.3368 c 0.861,0 2.507,1.952 2.507,5.013 z" />
</svg>
